sim/stage2_stress.vcd
$date
	Tue Nov 18 04:31:44 2025
$end
$version
	Icarus Verilog
$end
$timescale
	1ps
$end
$scope module universal_tb $end
$var wire 32 ! instr_rdata [31:0] $end
$var wire 32 " instr_addr [31:0] $end
$var wire 4 # data_we [3:0] $end
$var wire 32 $ data_wdata [31:0] $end
$var wire 1 % data_re $end
$var wire 32 & data_rdata [31:0] $end
$var wire 32 ' data_addr [31:0] $end
$var reg 1 ( clk $end
$var reg 1 ) rst $end
$var integer 32 * cycle_count [31:0] $end
$var integer 32 + max_cycles [31:0] $end
$var integer 32 , trace_fd [31:0] $end
$scope module dut $end
$var wire 1 - branch_taken_e $end
$var wire 1 ( clk $end
$var wire 32 . data_addr [31:0] $end
$var wire 32 / data_wdata [31:0] $end
$var wire 1 0 dbg_branch_taken $end
$var wire 1 1 dbg_bubble_ex $end
$var wire 32 2 dbg_busy_vec [31:0] $end
$var wire 1 3 dbg_fwd_rs1 $end
$var wire 1 4 dbg_fwd_rs2 $end
$var wire 32 5 dbg_instr_d [31:0] $end
$var wire 32 6 dbg_instr_e [31:0] $end
$var wire 32 7 dbg_instr_f [31:0] $end
$var wire 32 8 dbg_pc_f [31:0] $end
$var wire 32 9 dbg_result_e [31:0] $end
$var wire 1 : dbg_stall $end
$var wire 32 ; instr_addr [31:0] $end
$var wire 32 < instr_f [31:0] $end
$var wire 1 = is_load_ex $end
$var wire 1 ) rst $end
$var wire 1 > use_rs2_d $end
$var wire 1 ? use_rs1_d $end
$var wire 1 @ stall_if_id $end
$var wire 32 A rs2_val_d_fwd [31:0] $end
$var wire 32 B rs2_val_d [31:0] $end
$var wire 5 C rs2_d [4:0] $end
$var wire 32 D rs1_val_d_fwd [31:0] $end
$var wire 32 E rs1_val_d [31:0] $end
$var wire 5 F rs1_d [4:0] $end
$var wire 5 G rd_d [4:0] $end
$var wire 1 H prod_is_load_rs2 $end
$var wire 1 I prod_is_load_rs1 $end
$var wire 32 J pc_plus4_f [31:0] $end
$var wire 32 K pc_next [31:0] $end
$var wire 32 L instr_rdata [31:0] $end
$var wire 32 M imm_d [31:0] $end
$var wire 1 N hazard_rs2 $end
$var wire 1 O hazard_rs1 $end
$var wire 1 P fwd_rs2_en $end
$var wire 1 Q fwd_rs1_en $end
$var wire 4 R data_we [3:0] $end
$var wire 1 % data_re $end
$var wire 32 S data_rdata [31:0] $end
$var wire 26 T ctrl_d [25:0] $end
$var wire 32 U busy_vec [31:0] $end
$var wire 1 V bubble_ex $end
$var wire 1 W branch_cond_e $end
$var wire 32 X alu_result_e [31:0] $end
$var wire 32 Y addr_e [31:0] $end
$var parameter 32 Z NOP $end
$var reg 4 [ be_e [3:0] $end
$var reg 32 \ branch_target_e [31:0] $end
$var reg 26 ] de_ctrl [25:0] $end
$var reg 32 ^ de_imm [31:0] $end
$var reg 32 _ de_instr [31:0] $end
$var reg 32 ` de_pc [31:0] $end
$var reg 5 a de_rd [4:0] $end
$var reg 5 b de_rs1 [4:0] $end
$var reg 32 c de_rs1_val [31:0] $end
$var reg 5 d de_rs2 [4:0] $end
$var reg 32 e de_rs2_val [31:0] $end
$var reg 32 f fd_instr [31:0] $end
$var reg 32 g fd_pc [31:0] $end
$var reg 32 h load_data_e [31:0] $end
$var reg 32 i op1_e [31:0] $end
$var reg 32 j op2_e [31:0] $end
$var reg 32 k pc_f [31:0] $end
$var reg 32 l wb_data_e [31:0] $end
$var reg 32 m wdata_e [31:0] $end
$scope module u_alu $end
$var wire 4 n alu_op [3:0] $end
$var wire 32 o op_a [31:0] $end
$var wire 32 p op_b [31:0] $end
$var reg 32 q result [31:0] $end
$upscope $end
$scope module u_branch_unit $end
$var wire 3 r branch_type [2:0] $end
$var wire 32 s rs1_val [31:0] $end
$var wire 32 t rs2_val [31:0] $end
$var reg 1 W take_branch $end
$upscope $end
$scope module u_decoder $end
$var wire 32 u instr [31:0] $end
$var wire 5 v rs2 [4:0] $end
$var wire 5 w rs1 [4:0] $end
$var wire 5 x rd [4:0] $end
$var wire 7 y opcode [6:0] $end
$var wire 7 z funct7 [6:0] $end
$var wire 3 { funct3 [2:0] $end
$var reg 26 | ctrl [25:0] $end
$var reg 1 ? use_rs1 $end
$var reg 1 > use_rs2 $end
$upscope $end
$scope module u_forward_unit $end
$var wire 32 } ex_result [31:0] $end
$var wire 1 = is_load_ex $end
$var wire 5 ~ rd_ex [4:0] $end
$var wire 1 !" reg_write_ex $end
$var wire 5 "" rs1_id [4:0] $end
$var wire 5 #" rs2_id [4:0] $end
$var wire 32 $" rs2_data_id [31:0] $end
$var wire 32 %" rs1_data_id [31:0] $end
$var reg 32 &" fwd_rs1 [31:0] $end
$var reg 1 Q fwd_rs1_en $end
$var reg 32 '" fwd_rs2 [31:0] $end
$var reg 1 P fwd_rs2_en $end
$upscope $end
$scope module u_hazard_unit $end
$var wire 1 H producer_is_load_rs2 $end
$var wire 1 I producer_is_load_rs1 $end
$var wire 1 N hazard_rs2 $end
$var wire 1 O hazard_rs1 $end
$var reg 1 V bubble_ex $end
$var reg 1 (" load_use_hazard $end
$var reg 1 @ stall_if_id $end
$upscope $end
$scope module u_imm_gen $end
$var wire 3 )" imm_sel [2:0] $end
$var wire 32 *" instr [31:0] $end
$var reg 32 +" imm [31:0] $end
$upscope $end
$scope module u_reg_status_table $end
$var wire 1 ( clk $end
$var wire 1 = is_load_ex $end
$var wire 5 ," rd_ex [4:0] $end
$var wire 1 -" rd_write_en_ex $end
$var wire 5 ." rs1_id [4:0] $end
$var wire 5 /" rs2_id [4:0] $end
$var wire 1 ) rst $end
$var wire 1 ? use_rs1_id $end
$var wire 1 > use_rs2_id $end
$var reg 32 0" busy_vec [31:0] $end
$var reg 1 O hazard_rs1 $end
$var reg 1 N hazard_rs2 $end
$var reg 1 I producer_is_load_rs1 $end
$var reg 1 H producer_is_load_rs2 $end
$scope begin $ivl_for_loop0 $end
$var integer 32 1" i [31:0] $end
$upscope $end
$scope begin $ivl_for_loop1 $end
$var integer 32 2" j [31:0] $end
$upscope $end
$upscope $end
$scope module u_regfile $end
$var wire 1 ( clk $end
$var wire 5 3" raddr1 [4:0] $end
$var wire 5 4" raddr2 [4:0] $end
$var wire 1 ) rst $end
$var wire 5 5" waddr [4:0] $end
$var wire 32 6" wdata [31:0] $end
$var wire 1 7" we $end
$var wire 32 8" rdata2 [31:0] $end
$var wire 32 9" rdata1 [31:0] $end
$var integer 32 :" i [31:0] $end
$upscope $end
$scope begin $unm_blk_42 $end
$var reg 8 ;" b [7:0] $end
$upscope $end
$scope begin $unm_blk_43 $end
$var reg 8 <" b [7:0] $end
$upscope $end
$scope begin $unm_blk_44 $end
$var reg 16 =" h [15:0] $end
$upscope $end
$scope begin $unm_blk_45 $end
$var reg 16 >" h [15:0] $end
$upscope $end
$upscope $end
$scope module mem $end
$var wire 1 ( clk $end
$var wire 32 ?" data_addr [31:0] $end
$var wire 1 % data_re $end
$var wire 32 @" data_wdata [31:0] $end
$var wire 4 A" data_we [3:0] $end
$var wire 32 B" instr_addr [31:0] $end
$var wire 32 C" instr_rdata [31:0] $end
$var parameter 32 D" MEM_WORDS $end
$var reg 32 E" data_rdata [31:0] $end
$var integer 32 F" i [31:0] $end
$scope task load_hex $end
$upscope $end
$upscope $end
$upscope $end
$enddefinitions $end
$comment Show the parameter values. $end
$dumpall
b100000000000 D"
b10011 Z
$end
#0
$dumpvars
b100000000000 F"
b0 E"
bx C"
bx B"
b0 A"
bx @"
bx ?"
bx >"
bx ="
bx <"
bx ;"
bx :"
bx 9"
bx 8"
x7"
b0 6"
bx 5"
bx 4"
bx 3"
b100000 2"
b100000 1"
b0 0"
bx /"
bx ."
x-"
bx ,"
bx +"
bx *"
b0 )"
0("
bx '"
bx &"
bx %"
bx $"
bx #"
bx ""
x!"
bx ~
b0 }
b10000000000000000000 |
bx {
bx z
bx y
bx x
bx w
bx v
bx u
bx t
bx s
bx r
b0 q
bx p
bx o
bx n
bx m
b0 l
bx k
bx j
bx i
b0 h
bx g
bx f
bx e
bx d
bx c
bx b
bx a
bx `
bx _
bx ^
bx ]
bx \
b0 [
bx Y
b0 X
0W
0V
b0 U
b10000000000000000000 T
b0 S
b0 R
0Q
0P
xO
0N
bx M
bx L
bx K
bx J
xI
0H
bx G
bx F
bx E
bx D
bx C
bx B
bx A
0@
1?
0>
x=
bx <
bx ;
0:
b0 9
bx 8
bx 7
bx 6
bx 5
04
03
b0 2
01
x0
bx /
bx .
x-
b10000000000000000000000000000011 ,
b11001000 +
b0 *
1)
0(
bx '
b0 &
x%
bx $
b0 #
bx "
bx !
$end
#5000
b0 A
b0 '"
b0 D
b0 &"
b10000000000000010000 T
b10000000000000010000 |
b0 E
b0 %"
b0 9"
b0 B
b0 $"
b0 8"
0I
0O
0=
00
0-
b10011 y
b0 {
b0 z
b0 F
b0 w
b0 ""
b0 ."
b0 3"
b0 C
b0 v
b0 #"
b0 /"
b0 4"
b0 G
b0 x
b0 M
b0 +"
b100 K
b10100000000000010010011 7
b10100000000000010010011 <
b10100000000000010010011 !
b10100000000000010010011 L
b10100000000000010010011 C"
1W
b100000 2"
b100000 1"
b0 ;"
b0 $
b0 /
b0 @"
b0 m
b0 j
b0 p
07"
0-"
0!"
b0 n
b0 r
0%
b0 \
b0 i
b0 o
b10011 5
b10011 f
b10011 u
b10011 *"
b0 g
b100 J
b0 8
b0 "
b0 ;
b0 B"
b0 k
b0 '
b0 .
b0 ?"
b0 Y
b0 ^
b0 e
b0 t
b0 c
b0 s
b0 a
b0 ~
b0 ,"
b0 5"
b0 d
b0 b
b0 ]
b10011 6
b10011 _
b0 `
b100000 :"
1(
#10000
0(
#15000
b100000 :"
1(
#20000
0(
#25000
b100000 :"
1(
#30000
0(
#35000
b100000 :"
1(
#40000
0(
#45000
b100000 2"
b100000 1"
b101 C
b101 v
b101 #"
b101 /"
b101 4"
b1 G
b1 x
b101 M
b101 +"
b1000 K
b100001000000100110011 7
b100001000000100110011 <
b100001000000100110011 !
b100001000000100110011 L
b100001000000100110011 C"
17"
1-"
1!"
b10100000000000010010011 5
b10100000000000010010011 f
b10100000000000010010011 u
b10100000000000010010011 *"
b1000 J
b100 8
b100 "
b100 ;
b100 B"
b100 k
b10000000000000010000 ]
0)
1(
#50000
0(
#55000
b101 A
b101 '"
b101 D
b101 &"
b101 9
b101 l
b101 }
b101 6"
1N
b101 X
b101 q
1>
b10000 T
b10000 |
b101 j
b101 p
14
1P
13
1Q
b10 2
b10 U
b10 0"
b100000 2"
1O
b100000 1"
b101 \
b110011 y
b1 F
b1 w
b1 ""
b1 ."
b1 3"
b1 C
b1 v
b1 #"
b1 /"
b1 4"
b10 G
b10 x
b1 M
b1 +"
b1100 K
b100010000000110110011 7
b100010000000110110011 <
b100010000000110110011 !
b100010000000110110011 L
b100010000000110110011 C"
b101 '
b101 .
b101 ?"
b101 Y
b101 ^
b1 a
b1 ~
b1 ,"
b1 5"
b101 d
b10100000000000010010011 6
b10100000000000010010011 _
b100001000000100110011 5
b100001000000100110011 f
b100001000000100110011 u
b100001000000100110011 *"
b100 g
b1100 J
b1000 8
b1000 "
b1000 ;
b1000 B"
b1000 k
b1 *
1(
#60000
0(
#65000
b1010 9
b1010 l
b1010 }
b1010 6"
b1010 X
b1010 q
b101 B
b101 $"
b101 8"
b10 F
b10 w
b10 ""
b10 ."
b10 3"
b11 G
b11 x
b10000 K
b1100010000001001100011 7
b1100010000001001100011 <
b1100010000001001100011 !
b1100010000001001100011 L
b1100010000001001100011 C"
04
0P
13
1Q
b101 A
b101 '"
b1010 D
b1010 &"
b100 2
b100 U
b100 0"
b100000 2"
0N
1O
b100000 1"
b101 $
b101 /
b101 @"
b101 m
b101 i
b101 o
b100010000000110110011 5
b100010000000110110011 f
b100010000000110110011 u
b100010000000110110011 *"
b1000 g
b10000 J
b1100 8
b1100 "
b1100 ;
b1100 B"
b1100 k
b1 ^
b101 e
b101 t
b110 '
b110 .
b110 ?"
b110 Y
b101 c
b101 s
b10 a
b10 ~
b10 ,"
b10 5"
b1 d
b1 b
b10000 ]
b100001000000100110011 6
b100001000000100110011 _
b100 `
b10 *
1(
#70000
0(
#75000
b1111 9
b1111 l
b1111 }
b1111 6"
b10 )"
b1111 X
b1111 q
1>
b1000000000000100000000000 T
b1000000000000100000000000 |
b0 B
b0 $"
b0 8"
0W
14
1P
b1111 A
b1111 '"
03
0Q
b1000 2
b1000 U
b1000 0"
b100000 2"
1N
0O
b100000 1"
b1001 \
b1010 i
b1010 o
b1100011 y
b11 C
b11 v
b11 #"
b11 /"
b11 4"
b100 G
b100 x
b100 M
b100 +"
b10100 K
b10010000010000011 7
b10010000010000011 <
b10010000010000011 !
b10010000010000011 L
b10010000010000011 C"
b1010 E
b1010 %"
b1010 9"
b1011 '
b1011 .
b1011 ?"
b1011 Y
b1010 c
b1010 s
b11 a
b11 ~
b11 ,"
b11 5"
b10 b
b100010000000110110011 6
b100010000000110110011 _
b1000 `
b1100010000001001100011 5
b1100010000001001100011 f
b1100010000001001100011 u
b1100010000001001100011 *"
b1100 g
b10100 J
b10000 8
b10000 "
b10000 ;
b10000 B"
b10000 k
b11 *
1(
#80000
0(
#85000
b0 )"
b11001 9
b11001 l
b11001 }
b11001 6"
0>
b10000000001001010100 T
b10000000001001010100 |
b11001 X
b11001 q
b11 y
b10 {
b0 C
b0 v
b0 #"
b0 /"
b0 4"
b1 G
b1 x
b0 M
b0 +"
b11000 K
b100100000001010110011 7
b100100000001010110011 <
b100100000001010110011 !
b100100000001010110011 L
b100100000001010110011 C"
04
0P
b0 A
b0 '"
b0 2
b0 U
b0 0"
b100000 2"
0N
b100000 1"
b1111 $
b1111 /
b1111 @"
b1111 m
b1111 j
b1111 p
07"
0-"
0!"
b10000 \
b10010000010000011 5
b10010000010000011 f
b10010000010000011 u
b10010000010000011 *"
b10000 g
b11000 J
b10100 8
b10100 "
b10100 ;
b10100 B"
b10100 k
b1110 '
b1110 .
b1110 ?"
b1110 Y
b100 ^
b1111 e
b1111 t
b100 a
b100 ~
b100 ,"
b100 5"
b11 d
b1000000000000100000000000 ]
b1100010000001001100011 6
b1100010000001001100011 _
b1100 `
b100 *
1(
#90000
0(
#95000
11
1V
1:
1@
1("
1H
1N
b101 A
b101 '"
b0 D
b0 &"
b100010000000110110011 h
b1010 X
b1010 q
1=
1>
b10000 T
b10000 |
b0 E
b0 %"
b0 9"
b101 B
b101 $"
b101 8"
b100010000000110110011 &
b100010000000110110011 S
b100010000000110110011 E"
04
0P
b10 2
b10 U
b10 0"
b100000 2"
b100000 1"
b0 $
b0 /
b0 @"
b0 m
b0 j
b0 p
17"
1-"
1!"
1%
b100010000000110110011 9
b100010000000110110011 l
b100010000000110110011 }
b100010000000110110011 6"
b110011 y
b0 {
b100 F
b100 w
b100 ""
b100 ."
b100 3"
b1 C
b1 v
b1 #"
b1 /"
b1 4"
b101 G
b101 x
b1 M
b1 +"
b11100 K
b1100101000001100110011 7
b1100101000001100110011 <
b1100101000001100110011 !
b1100101000001100110011 L
b1100101000001100110011 C"
b1010 '
b1010 .
b1010 ?"
b1010 Y
b0 ^
b0 e
b0 t
b1 a
b1 ~
b1 ,"
b1 5"
b0 d
b10000000001001010100 ]
b10010000010000011 6
b10010000010000011 _
b10000 `
b100100000001010110011 5
b100100000001010110011 f
b100100000001010110011 u
b100100000001010110011 *"
b10100 g
b11100 J
b11000 8
b11000 "
b11000 ;
b11000 B"
b11000 k
b101 *
1(
#100000
0(
#105000
b100010000000110110011 A
b100010000000110110011 '"
01
0V
0:
0@
0("
0=
b0 X
b0 q
b100010000000110110011 B
b100010000000110110011 $"
b100010000000110110011 8"
b0 &
b0 S
b0 E"
1W
b0 2
b0 U
b0 0"
b100000 2"
0H
0N
b100000 1"
b0 h
b0 ;"
07"
0-"
0!"
0%
b0 9
b0 l
b0 }
b0 6"
b0 \
b0 i
b0 o
b0 '
b0 .
b0 ?"
b0 Y
b0 c
b0 s
b0 a
b0 ~
b0 ,"
b0 5"
b0 b
b0 ]
b10011 6
b10011 _
b0 `
b110 *
1(
#110000
0(
#115000
b100010000000110110011 D
b100010000000110110011 &"
b100010000000110110011 9
b100010000000110110011 l
b100010000000110110011 }
b100010000000110110011 6"
b1111 A
b1111 '"
b100010000000110110011 X
b100010000000110110011 q
b1111 B
b1111 $"
b1111 8"
0W
13
1Q
b100000 2
b100000 U
b100000 0"
b100000 2"
1O
b100000 1"
b100010000000110110011 $
b100010000000110110011 /
b100010000000110110011 @"
b100010000000110110011 m
b100010000000110110011 j
b100010000000110110011 p
17"
1-"
1!"
b10101 \
b101 F
b101 w
b101 ""
b101 ."
b101 3"
b11 C
b11 v
b11 #"
b11 /"
b11 4"
b110 G
b110 x
b11 M
b11 +"
b100000 K
b100110000001110010011 7
b100110000001110010011 <
b100110000001110010011 !
b100110000001110010011 L
b100110000001110010011 C"
b1 '
b1 .
b1 ?"
b1 Y
b1 ^
b100010000000110110011 e
b100010000000110110011 t
b101 a
b101 ~
b101 ,"
b101 5"
b1 d
b100 b
b10000 ]
b100100000001010110011 6
b100100000001010110011 _
b10100 `
b1100101000001100110011 5
b1100101000001100110011 f
b1100101000001100110011 u
b1100101000001100110011 *"
b11000 g
b100000 J
b11100 8
b11100 "
b11100 ;
b11100 B"
b11100 k
b111 *
1(
#120000
0(
#125000
b100010000000110110011 A
b100010000000110110011 '"
b100010000000111000010 9
b100010000000111000010 l
b100010000000111000010 }
b100010000000111000010 6"
0>
b10000000000000010000 T
b10000000000000010000 |
b100010000000110110011 B
b100010000000110110011 $"
b100010000000110110011 8"
b100010000000111000010 X
b100010000000111000010 q
b10011 y
b110 F
b110 w
b110 ""
b110 ."
b110 3"
b1 C
b1 v
b1 #"
b1 /"
b1 4"
b111 G
b111 x
b1 M
b1 +"
b100100 K
b100000000000001110011 7
b100000000000001110011 <
b100000000000001110011 !
b100000000000001110011 L
b100000000000001110011 C"
b1111 j
b1111 p
b1111 $
b1111 /
b1111 @"
b1111 m
13
1Q
b100010000000111000010 D
b100010000000111000010 &"
b1000000 2
b1000000 U
b1000000 0"
b100000 2"
1O
b100000 1"
b11011 \
b100010000000110110011 i
b100010000000110110011 o
b100110000001110010011 5
b100110000001110010011 f
b100110000001110010011 u
b100110000001110010011 *"
b11100 g
b100100 J
b100000 8
b100000 "
b100000 ;
b100000 B"
b100000 k
b11 ^
b1111 e
b1111 t
b100010000000110110110 '
b100010000000110110110 .
b100010000000110110110 ?"
b100010000000110110110 Y
b100010000000110110011 c
b100010000000110110011 s
b110 a
b110 ~
b110 ,"
b110 5"
b11 d
b101 b
b1100101000001100110011 6
b1100101000001100110011 _
b11000 `
b1000 *
1(
#130000
0(
#135000
b100010000000111000011 9
b100010000000111000011 l
b100010000000111000011 }
b100010000000111000011 6"
b0 D
b0 &"
b100010000000111000011 X
b100010000000111000011 q
b10000000000000000000 T
b10000000000000000000 |
03
0Q
b10000000 2
b10000000 U
b10000000 0"
b100000 2"
0O
b100000 1"
b100010000000110110011 $
b100010000000110110011 /
b100010000000110110011 @"
b100010000000110110011 m
b1 j
b1 p
b11101 \
b100010000000111000010 i
b100010000000111000010 o
b1110011 y
b0 F
b0 w
b0 ""
b0 ."
b0 3"
b0 G
b0 x
b101000 K
b0 7
b0 <
b0 !
b0 L
b0 C"
b0 E
b0 %"
b0 9"
b1 ^
b100010000000110110011 e
b100010000000110110011 t
b100010000000111000011 '
b100010000000111000011 .
b100010000000111000011 ?"
b100010000000111000011 Y
b100010000000111000010 c
b100010000000111000010 s
b111 a
b111 ~
b111 ,"
b111 5"
b1 d
b110 b
b10000000000000010000 ]
b100110000001110010011 6
b100110000001110010011 _
b11100 `
b100000000000001110011 5
b100000000000001110011 f
b100000000000001110011 u
b100000000000001110011 *"
b100000 g
b101000 J
b100100 8
b100100 "
b100100 ;
b100100 B"
b100100 k
b1001 *
1(
#140000
0(
#145000
b0 A
b0 '"
b1 9
b1 l
b1 }
b1 6"
b0 B
b0 $"
b0 8"
b1 X
b1 q
b0 y
b0 C
b0 v
b0 #"
b0 /"
b0 4"
b0 M
b0 +"
b101100 K
b0 2
b0 U
b0 0"
b100000 2"
b100000 1"
07"
0-"
0!"
b100001 \
b0 i
b0 o
b0 5
b0 f
b0 u
b0 *"
b100100 g
b101100 J
b101000 8
b101000 "
b101000 ;
b101000 B"
b101000 k
b1 '
b1 .
b1 ?"
b1 Y
b0 c
b0 s
b0 a
b0 ~
b0 ,"
b0 5"
b0 b
b10000000000000000000 ]
b100000000000001110011 6
b100000000000001110011 _
b100000 `
b1010 *
1(
#150000
0(
#155000
b0 9
b0 l
b0 }
b0 6"
b0 X
b0 q
1W
b0 j
b0 p
b0 $
b0 /
b0 @"
b0 m
b100100 \
b110000 K
b0 '
b0 .
b0 ?"
b0 Y
b0 ^
b0 e
b0 t
b0 d
b0 6
b0 _
b100100 `
b101000 g
b110000 J
b101100 8
b101100 "
b101100 ;
b101100 B"
b101100 k
b1011 *
1(
